{"Admin_Username":"Ratul","Username":"Nadim99","Program":"Bostro Bitosron","Type":"Charity","Start":"2021-10-22","End":"2021-10-30","Requird_Volunteer":"634","Requird_Amount":"2342","Phone":"12345","post":"we"}
{"Admin_Username":"Ratul","Username":"Nadim99","Program":"Bostro Bitosron","Type":"Charity","Start":"2021-10-29","End":"2021-12-01","Requird_Volunteer":"23","Requird_Amount":"53","Phone":"12345","post":"dsad"}
{"Admin_Username":"Ratul","Username":"Nadim99","Program":"Bostro Bitosron","Type":"Charity","Start":"2021-10-29","End":"2021-12-01","Requird_Volunteer":"42","Requird_Amount":"123","Phone":"12345","post":"dsad"}
{"Admin_Username":"Ratul","Username":"Nadim99","Program":"Bostro Bitosron","Type":"Charity","Start":"2021-10-29","End":"2021-12-01","Requird_Volunteer":"123","Requird_Amount":"53","Phone":"12345","post":"dsad"}
{"Admin_Username":"Ratul","Username":"Nadim99","Program":"Bostro Bitosron","Type":"Charity","Start":"2021-10-29","End":"2021-12-01","Requird_Volunteer":"25","Requird_Amount":"342","Phone":"12345","post":"dsad"}
{"Admin_Username":"Ratul","Username":"Nadim","Program":"Tree Plant","Type":"Charity","Start":"2021-10-29","End":"2021-12-01","Requird_Volunteer":"235","Requird_Amount":"3098","Phone":"12345","post":"dsad"}