{"id":537632234,"User_Name":"Nadim99","NGO_Name":"Plant Tree For Life","Program_Name":"Tree Plant","Program_Type":"Cherity","Program_Motives":"mmmmmm","Program_Description":" dddddd","Required_Amount":"2000","Required_Volunteer":"50","Start_Date":"2021-10-27","Start_Time":"09:00","Closed_Date":"2021-10-27","Closed_Time":"13:15","Bank_Account_Number":"12345678","Bkash_Number":"01234567890","Status":"pending","post":""}
{"id":537632123,"User_Name":"Nadim99","NGO_Name":"Plant Tree For Life","Program_Name":"Tree Plant","Program_Type":"Cherity","Program_Motives":"mmmmmm","Program_Description":" dddddd","Required_Amount":"200","Required_Volunteer":"502","Start_Date":"2021-10-27","Start_Time":"09:00","Closed_Date":"2021-10-27","Closed_Time":"13:15","Bank_Account_Number":"12345678","Bkash_Number":"01234567890","Status":"rejected","post":""}
{"id":537632313,"User_Name":"Nadim99","NGO_Name":"Plant Tree For Life","Program_Name":"Tree Plant","Program_Type":"Cherity","Program_Motives":"mmmmmm","Program_Description":" dddddd","Required_Amount":"2001","Required_Volunteer":"509","Start_Date":"2021-10-27","Start_Time":"09:00","Closed_Date":"2021-10-27","Closed_Time":"13:15","Bank_Account_Number":"12345678","Bkash_Number":"01234567890","Status":"","post":"completed"}
{"id":949776860,"User_Name":"Nadim99","NGO_Name":"Plant Tree For Life","Program_Name":"pppp","Program_Type":"ooooo","Program_Motives":"  jnnjn","Program_Description":" kmkn","Required_Amount":"10000","Required_Volunteer":"200000","Start_Date":"2021-10-13","Start_Time":"04:21","Closed_Date":"2021-10-15","Closed_Time":"00:48","Bank_Account_Number":"12345678","Bkash_Number":"01623124578","Status":"","post":"completed"}
{"id":1187572373,"User_Name":"Nadim","NGO_Name":"Plant Tree For Life","Program_Name":"Tree Plant","Program_Type":"Cherity","Program_Motives":"  poiu","Program_Description":" njk kj","Required_Amount":"3098","Required_Volunteer":"235","Start_Date":"2021-10-09","Start_Time":"01:56","Closed_Date":"2021-10-23","Closed_Time":"01:57","Bank_Account_Number":"13250124","Bkash_Number":"01632512457","Status":"","post":"completed"}
{"id":183147185,"User_Name":"Nadim99","NGO_Name":"Plant Tree For Life","Program_Name":"Tree Plant","Program_Type":"dasdcdas","Program_Motives":"  dfvwsrdgv","Program_Description":" dfgbsertg","Required_Amount":"200","Required_Volunteer":"200","Start_Date":"2021-11-18","Start_Time":"08:52","Closed_Date":"2021-11-18","Closed_Time":"08:53","Bank_Account_Number":"12345678901","Bkash_Number":"01852814232","Status":"","post":"completed"}
